module gitlab.com/ejv-demo-go/go-grpc-walkthrough

go 1.21.3

require google.golang.org/grpc v1.59.0

require (
	cloud.google.com/go v0.110.7 // indirect
	cloud.google.com/go/compute v1.23.0 // indirect
	cloud.google.com/go/compute/metadata v0.2.3 // indirect
	cloud.google.com/go/trace v1.10.1 // indirect
	github.com/GoogleCloudPlatform/opentelemetry-operations-go/detectors/gcp v1.19.1 // indirect
	github.com/GoogleCloudPlatform/opentelemetry-operations-go/internal/resourcemapping v0.44.0 // indirect
	github.com/cenkalti/backoff/v4 v4.2.1 // indirect
	github.com/go-logr/logr v1.2.4 // indirect
	github.com/go-logr/stdr v1.2.2 // indirect
	github.com/golang/groupcache v0.0.0-20210331224755-41bb18bfe9da // indirect
	github.com/google/pprof v0.0.0-20230602150820-91b7bce49751 // indirect
	github.com/google/s2a-go v0.1.4 // indirect
	github.com/googleapis/enterprise-certificate-proxy v0.2.4 // indirect
	github.com/googleapis/gax-go/v2 v2.12.0 // indirect
	github.com/grpc-ecosystem/grpc-gateway/v2 v2.16.0 // indirect
	go.opencensus.io v0.24.0 // indirect
	go.opentelemetry.io/otel v1.19.0 // indirect
	go.opentelemetry.io/otel/exporters/otlp/otlptrace v1.19.0 // indirect
	go.opentelemetry.io/otel/metric v1.19.0 // indirect
	go.opentelemetry.io/otel/sdk v1.19.0 // indirect
	go.opentelemetry.io/otel/trace v1.19.0 // indirect
	go.opentelemetry.io/proto/otlp v1.0.0 // indirect
	golang.org/x/crypto v0.14.0 // indirect
	golang.org/x/oauth2 v0.11.0 // indirect
	golang.org/x/sync v0.3.0 // indirect
	google.golang.org/api v0.128.0 // indirect
	google.golang.org/appengine v1.6.7 // indirect
	google.golang.org/genproto v0.0.0-20230822172742-b8732ec3820d // indirect
	google.golang.org/genproto/googleapis/api v0.0.0-20230822172742-b8732ec3820d // indirect
)

require (
	cloud.google.com/go/profiler v0.4.0
	github.com/GoogleCloudPlatform/opentelemetry-operations-go/exporter/trace v1.20.0
	github.com/golang/protobuf v1.5.3 // indirect
	go.opentelemetry.io/contrib/detectors/gcp v1.20.0
	go.opentelemetry.io/contrib/instrumentation/google.golang.org/grpc/otelgrpc v0.45.0
	go.opentelemetry.io/otel/exporters/otlp/otlptrace/otlptracegrpc v1.19.0
	golang.org/x/net v0.17.0 // indirect
	golang.org/x/sys v0.13.0 // indirect
	golang.org/x/text v0.13.0 // indirect
	google.golang.org/genproto/googleapis/rpc v0.0.0-20230822172742-b8732ec3820d // indirect
	google.golang.org/protobuf v1.31.0 // indirect
)
